Case Study 1 DDS 6306
…
#Change type column to character vector and use grep() to use keywords to create generalized beer categories
beers_merge_simplified_style$type = as.character(beers_merge_simplified_style$type)

beers_merge_simplified_style$type[grepl(x = beers_merge_simplified_style$type,pattern = '(\\bIPA\\b)',ignore.case = TRUE)]="IPA "

f = data.frame(beers_merge_simplified_style) %>% group_by(type) %>% summarise(Count = n(), ABV_median=median(ABV), IBU_median=median(IBU)) %>% arrange(desc(Count))

## `summarise()` ungrouping output (override with `.groups` argument)

f

## # A tibble: 86 x 4
##    type                       Count ABV_median IBU_median
##    <chr>                      <int>      <dbl>      <dbl>
##  1 "IPA "                       392     0.068        70  
##  2 "American Pale Ale (APA)"    153     0.055        44  
##  3 "American Amber / Red Ale"    77     0.056        31  
##  4 "American Blonde Ale"         61     0.05         20  
##  5 "American Pale Wheat Ale"     61     0.048        20  
##  6 "American Porter"             39     0.058        31  
##  7 "American Brown Ale"          38     0.055        26  
##  8 "Fruit / Vegetable Beer"      30     0.0505       15.5
##  9 "Hefeweizen"                  27     0.051        15  
## 10 "Kölsch"                      27     0.049        22  
## # … with 76 more rows
…
